Animaciones/pruebas/simulation/qsim/prueba.msim.vcd
$comment
	File created using the following command:
		vcd file prueba.msim.vcd -direction
$end
$date
	Sat Nov 28 02:02:10 2020
$end
$version
	ModelSim Version 10.1d
$end
$timescale
	1ps
$end
$scope module prueba_vlg_vec_tst $end
$var reg 1 ! CLK $end
$var reg 1 " START $end
$var wire 1 # c_out [31] $end
$var wire 1 $ c_out [30] $end
$var wire 1 % c_out [29] $end
$var wire 1 & c_out [28] $end
$var wire 1 ' c_out [27] $end
$var wire 1 ( c_out [26] $end
$var wire 1 ) c_out [25] $end
$var wire 1 * c_out [24] $end
$var wire 1 + c_out [23] $end
$var wire 1 , c_out [22] $end
$var wire 1 - c_out [21] $end
$var wire 1 . c_out [20] $end
$var wire 1 / c_out [19] $end
$var wire 1 0 c_out [18] $end
$var wire 1 1 c_out [17] $end
$var wire 1 2 c_out [16] $end
$var wire 1 3 c_out [15] $end
$var wire 1 4 c_out [14] $end
$var wire 1 5 c_out [13] $end
$var wire 1 6 c_out [12] $end
$var wire 1 7 c_out [11] $end
$var wire 1 8 c_out [10] $end
$var wire 1 9 c_out [9] $end
$var wire 1 : c_out [8] $end
$var wire 1 ; c_out [7] $end
$var wire 1 < c_out [6] $end
$var wire 1 = c_out [5] $end
$var wire 1 > c_out [4] $end
$var wire 1 ? c_out [3] $end
$var wire 1 @ c_out [2] $end
$var wire 1 A c_out [1] $end
$var wire 1 B c_out [0] $end
$var wire 1 C f_out [31] $end
$var wire 1 D f_out [30] $end
$var wire 1 E f_out [29] $end
$var wire 1 F f_out [28] $end
$var wire 1 G f_out [27] $end
$var wire 1 H f_out [26] $end
$var wire 1 I f_out [25] $end
$var wire 1 J f_out [24] $end
$var wire 1 K f_out [23] $end
$var wire 1 L f_out [22] $end
$var wire 1 M f_out [21] $end
$var wire 1 N f_out [20] $end
$var wire 1 O f_out [19] $end
$var wire 1 P f_out [18] $end
$var wire 1 Q f_out [17] $end
$var wire 1 R f_out [16] $end
$var wire 1 S f_out [15] $end
$var wire 1 T f_out [14] $end
$var wire 1 U f_out [13] $end
$var wire 1 V f_out [12] $end
$var wire 1 W f_out [11] $end
$var wire 1 X f_out [10] $end
$var wire 1 Y f_out [9] $end
$var wire 1 Z f_out [8] $end
$var wire 1 [ f_out [7] $end
$var wire 1 \ f_out [6] $end
$var wire 1 ] f_out [5] $end
$var wire 1 ^ f_out [4] $end
$var wire 1 _ f_out [3] $end
$var wire 1 ` f_out [2] $end
$var wire 1 a f_out [1] $end
$var wire 1 b f_out [0] $end
$var wire 1 c GND_OUT [7] $end
$var wire 1 d GND_OUT [6] $end
$var wire 1 e GND_OUT [5] $end
$var wire 1 f GND_OUT [4] $end
$var wire 1 g GND_OUT [3] $end
$var wire 1 h GND_OUT [2] $end
$var wire 1 i GND_OUT [1] $end
$var wire 1 j GND_OUT [0] $end
$var wire 1 k VCC_OUT [63] $end
$var wire 1 l VCC_OUT [62] $end
$var wire 1 m VCC_OUT [61] $end
$var wire 1 n VCC_OUT [60] $end
$var wire 1 o VCC_OUT [59] $end
$var wire 1 p VCC_OUT [58] $end
$var wire 1 q VCC_OUT [57] $end
$var wire 1 r VCC_OUT [56] $end
$var wire 1 s VCC_OUT [55] $end
$var wire 1 t VCC_OUT [54] $end
$var wire 1 u VCC_OUT [53] $end
$var wire 1 v VCC_OUT [52] $end
$var wire 1 w VCC_OUT [51] $end
$var wire 1 x VCC_OUT [50] $end
$var wire 1 y VCC_OUT [49] $end
$var wire 1 z VCC_OUT [48] $end
$var wire 1 { VCC_OUT [47] $end
$var wire 1 | VCC_OUT [46] $end
$var wire 1 } VCC_OUT [45] $end
$var wire 1 ~ VCC_OUT [44] $end
$var wire 1 !! VCC_OUT [43] $end
$var wire 1 "! VCC_OUT [42] $end
$var wire 1 #! VCC_OUT [41] $end
$var wire 1 $! VCC_OUT [40] $end
$var wire 1 %! VCC_OUT [39] $end
$var wire 1 &! VCC_OUT [38] $end
$var wire 1 '! VCC_OUT [37] $end
$var wire 1 (! VCC_OUT [36] $end
$var wire 1 )! VCC_OUT [35] $end
$var wire 1 *! VCC_OUT [34] $end
$var wire 1 +! VCC_OUT [33] $end
$var wire 1 ,! VCC_OUT [32] $end
$var wire 1 -! VCC_OUT [31] $end
$var wire 1 .! VCC_OUT [30] $end
$var wire 1 /! VCC_OUT [29] $end
$var wire 1 0! VCC_OUT [28] $end
$var wire 1 1! VCC_OUT [27] $end
$var wire 1 2! VCC_OUT [26] $end
$var wire 1 3! VCC_OUT [25] $end
$var wire 1 4! VCC_OUT [24] $end
$var wire 1 5! VCC_OUT [23] $end
$var wire 1 6! VCC_OUT [22] $end
$var wire 1 7! VCC_OUT [21] $end
$var wire 1 8! VCC_OUT [20] $end
$var wire 1 9! VCC_OUT [19] $end
$var wire 1 :! VCC_OUT [18] $end
$var wire 1 ;! VCC_OUT [17] $end
$var wire 1 <! VCC_OUT [16] $end
$var wire 1 =! VCC_OUT [15] $end
$var wire 1 >! VCC_OUT [14] $end
$var wire 1 ?! VCC_OUT [13] $end
$var wire 1 @! VCC_OUT [12] $end
$var wire 1 A! VCC_OUT [11] $end
$var wire 1 B! VCC_OUT [10] $end
$var wire 1 C! VCC_OUT [9] $end
$var wire 1 D! VCC_OUT [8] $end
$var wire 1 E! VCC_OUT [7] $end
$var wire 1 F! VCC_OUT [6] $end
$var wire 1 G! VCC_OUT [5] $end
$var wire 1 H! VCC_OUT [4] $end
$var wire 1 I! VCC_OUT [3] $end
$var wire 1 J! VCC_OUT [2] $end
$var wire 1 K! VCC_OUT [1] $end
$var wire 1 L! VCC_OUT [0] $end
$var wire 1 M! sampler $end
$scope module i1 $end
$var wire 1 N! gnd $end
$var wire 1 O! vcc $end
$var wire 1 P! unknown $end
$var tri1 1 Q! devclrn $end
$var tri1 1 R! devpor $end
$var tri1 1 S! devoe $end
$var wire 1 T! Equal2~2_combout $end
$var wire 1 U! Equal1~1_combout $end
$var wire 1 V! Equal1~2_combout $end
$var wire 1 W! Equal1~7_combout $end
$var wire 1 X! CLK~combout $end
$var wire 1 Y! CLK~clkctrl_outclk $end
$var wire 1 Z! START~combout $end
$var wire 1 [! columna[0]~31_combout $end
$var wire 1 \! columna[1]~33_combout $end
$var wire 1 ]! columna[5]~41_combout $end
$var wire 1 ^! columna[3]~37_combout $end
$var wire 1 _! Equal2~0_combout $end
$var wire 1 `! Equal2~1_combout $end
$var wire 1 a! columna[20]~72 $end
$var wire 1 b! columna[21]~74 $end
$var wire 1 c! columna[22]~76 $end
$var wire 1 d! columna[23]~77_combout $end
$var wire 1 e! columna[23]~78 $end
$var wire 1 f! columna[24]~80 $end
$var wire 1 g! columna[25]~81_combout $end
$var wire 1 h! columna[25]~82 $end
$var wire 1 i! columna[26]~84 $end
$var wire 1 j! columna[27]~85_combout $end
$var wire 1 k! columna[27]~86 $end
$var wire 1 l! columna[28]~88 $end
$var wire 1 m! columna[29]~89_combout $end
$var wire 1 n! columna[29]~90 $end
$var wire 1 o! columna[30]~91_combout $end
$var wire 1 p! columna[30]~92 $end
$var wire 1 q! columna[31]~93_combout $end
$var wire 1 r! columna[26]~83_combout $end
$var wire 1 s! Equal2~7_combout $end
$var wire 1 t! columna[28]~87_combout $end
$var wire 1 u! Equal2~8_combout $end
$var wire 1 v! Equal2~9_combout $end
$var wire 1 w! Equal2~10_combout $end
$var wire 1 x! fila[1]~38 $end
$var wire 1 y! fila[2]~39_combout $end
$var wire 1 z! columna[6]~43_combout $end
$var wire 1 {! fila[0]~34_combout $end
$var wire 1 |! fila[0]~99_combout $end
$var wire 1 }! fila[2]~40 $end
$var wire 1 ~! fila[3]~42 $end
$var wire 1 !" fila[4]~43_combout $end
$var wire 1 "" fila[4]~44 $end
$var wire 1 #" fila[5]~46 $end
$var wire 1 $" fila[6]~48 $end
$var wire 1 %" fila[7]~49_combout $end
$var wire 1 &" fila[7]~50 $end
$var wire 1 '" fila[8]~52 $end
$var wire 1 (" fila[9]~53_combout $end
$var wire 1 )" fila[8]~51_combout $end
$var wire 1 *" fila[9]~54 $end
$var wire 1 +" fila[10]~56 $end
$var wire 1 ," fila[11]~57_combout $end
$var wire 1 -" Equal1~3_combout $end
$var wire 1 ." fila[11]~58 $end
$var wire 1 /" fila[12]~60 $end
$var wire 1 0" fila[13]~61_combout $end
$var wire 1 1" fila[13]~62 $end
$var wire 1 2" fila[14]~63_combout $end
$var wire 1 3" fila[14]~64 $end
$var wire 1 4" fila[15]~65_combout $end
$var wire 1 5" fila[15]~66 $end
$var wire 1 6" fila[16]~67_combout $end
$var wire 1 7" fila[16]~68 $end
$var wire 1 8" fila[17]~69_combout $end
$var wire 1 9" fila[17]~70 $end
$var wire 1 :" fila[18]~71_combout $end
$var wire 1 ;" fila[18]~72 $end
$var wire 1 <" fila[19]~74 $end
$var wire 1 =" fila[20]~75_combout $end
$var wire 1 >" fila[20]~76 $end
$var wire 1 ?" fila[21]~78 $end
$var wire 1 @" fila[22]~80 $end
$var wire 1 A" fila[23]~81_combout $end
$var wire 1 B" fila[23]~82 $end
$var wire 1 C" fila[24]~84 $end
$var wire 1 D" fila[25]~85_combout $end
$var wire 1 E" fila[25]~86 $end
$var wire 1 F" fila[26]~88 $end
$var wire 1 G" fila[27]~89_combout $end
$var wire 1 H" fila[27]~90 $end
$var wire 1 I" fila[28]~91_combout $end
$var wire 1 J" fila[28]~92 $end
$var wire 1 K" fila[29]~93_combout $end
$var wire 1 L" fila[29]~94 $end
$var wire 1 M" fila[30]~95_combout $end
$var wire 1 N" Equal1~8_combout $end
$var wire 1 O" fila[19]~73_combout $end
$var wire 1 P" Equal1~5_combout $end
$var wire 1 Q" fila[22]~79_combout $end
$var wire 1 R" fila[21]~77_combout $end
$var wire 1 S" Equal1~6_combout $end
$var wire 1 T" Equal1~9_combout $end
$var wire 1 U" Equal1~4_combout $end
$var wire 1 V" Equal1~10_combout $end
$var wire 1 W" columna[31]~32_combout $end
$var wire 1 X" columna[1]~34 $end
$var wire 1 Y" columna[2]~35_combout $end
$var wire 1 Z" columna[2]~36 $end
$var wire 1 [" columna[3]~38 $end
$var wire 1 \" columna[4]~39_combout $end
$var wire 1 ]" columna[4]~40 $end
$var wire 1 ^" columna[5]~42 $end
$var wire 1 _" columna[6]~44 $end
$var wire 1 `" columna[7]~45_combout $end
$var wire 1 a" columna[7]~46 $end
$var wire 1 b" columna[8]~48 $end
$var wire 1 c" columna[9]~49_combout $end
$var wire 1 d" columna[9]~50 $end
$var wire 1 e" columna[10]~52 $end
$var wire 1 f" columna[11]~53_combout $end
$var wire 1 g" columna[11]~54 $end
$var wire 1 h" columna[12]~56 $end
$var wire 1 i" columna[13]~57_combout $end
$var wire 1 j" columna[13]~58 $end
$var wire 1 k" columna[14]~59_combout $end
$var wire 1 l" columna[14]~60 $end
$var wire 1 m" columna[15]~61_combout $end
$var wire 1 n" columna[15]~62 $end
$var wire 1 o" columna[16]~63_combout $end
$var wire 1 p" columna[16]~64 $end
$var wire 1 q" columna[17]~65_combout $end
$var wire 1 r" columna[17]~66 $end
$var wire 1 s" columna[18]~67_combout $end
$var wire 1 t" columna[18]~68 $end
$var wire 1 u" columna[19]~70 $end
$var wire 1 v" columna[20]~71_combout $end
$var wire 1 w" columna[21]~73_combout $end
$var wire 1 x" columna[22]~75_combout $end
$var wire 1 y" Equal2~5_combout $end
$var wire 1 z" Equal2~3_combout $end
$var wire 1 {" Equal2~4_combout $end
$var wire 1 |" Equal2~6_combout $end
$var wire 1 }" fila[0]~33_combout $end
$var wire 1 ~" fila[0]~35_combout $end
$var wire 1 !# fila[0]~36_combout $end
$var wire 1 "# fila[1]~37_combout $end
$var wire 1 ## fila[3]~41_combout $end
$var wire 1 $# fila[5]~45_combout $end
$var wire 1 %# fila[6]~47_combout $end
$var wire 1 &# fila[10]~55_combout $end
$var wire 1 '# fila[12]~59_combout $end
$var wire 1 (# fila[24]~83_combout $end
$var wire 1 )# fila[26]~87_combout $end
$var wire 1 *# fila[30]~96 $end
$var wire 1 +# fila[31]~97_combout $end
$var wire 1 ,# columna[8]~47_combout $end
$var wire 1 -# columna[10]~51_combout $end
$var wire 1 .# columna[12]~55_combout $end
$var wire 1 /# columna[19]~69_combout $end
$var wire 1 0# columna[24]~79_combout $end
$var wire 1 1# Decoder0~0_combout $end
$var wire 1 2# Decoder0~1_combout $end
$var wire 1 3# Decoder0~2_combout $end
$var wire 1 4# Decoder0~3_combout $end
$var wire 1 5# Decoder0~4_combout $end
$var wire 1 6# Decoder0~5_combout $end
$var wire 1 7# Decoder0~6_combout $end
$var wire 1 8# Decoder0~7_combout $end
$var wire 1 9# Mux0~0_combout $end
$var wire 1 :# Mux0~1_combout $end
$var wire 1 ;# Mux0~2_combout $end
$var wire 1 <# Mux0~3_combout $end
$var wire 1 =# Mux0~4_combout $end
$var wire 1 ># Mux0~5_combout $end
$var wire 1 ?# Mux0~6_combout $end
$var wire 1 @# Equal1~0_combout $end
$var wire 1 A# columna [31] $end
$var wire 1 B# columna [30] $end
$var wire 1 C# columna [29] $end
$var wire 1 D# columna [28] $end
$var wire 1 E# columna [27] $end
$var wire 1 F# columna [26] $end
$var wire 1 G# columna [25] $end
$var wire 1 H# columna [24] $end
$var wire 1 I# columna [23] $end
$var wire 1 J# columna [22] $end
$var wire 1 K# columna [21] $end
$var wire 1 L# columna [20] $end
$var wire 1 M# columna [19] $end
$var wire 1 N# columna [18] $end
$var wire 1 O# columna [17] $end
$var wire 1 P# columna [16] $end
$var wire 1 Q# columna [15] $end
$var wire 1 R# columna [14] $end
$var wire 1 S# columna [13] $end
$var wire 1 T# columna [12] $end
$var wire 1 U# columna [11] $end
$var wire 1 V# columna [10] $end
$var wire 1 W# columna [9] $end
$var wire 1 X# columna [8] $end
$var wire 1 Y# columna [7] $end
$var wire 1 Z# columna [6] $end
$var wire 1 [# columna [5] $end
$var wire 1 \# columna [4] $end
$var wire 1 ]# columna [3] $end
$var wire 1 ^# columna [2] $end
$var wire 1 _# columna [1] $end
$var wire 1 `# columna [0] $end
$var wire 1 a# fila [31] $end
$var wire 1 b# fila [30] $end
$var wire 1 c# fila [29] $end
$var wire 1 d# fila [28] $end
$var wire 1 e# fila [27] $end
$var wire 1 f# fila [26] $end
$var wire 1 g# fila [25] $end
$var wire 1 h# fila [24] $end
$var wire 1 i# fila [23] $end
$var wire 1 j# fila [22] $end
$var wire 1 k# fila [21] $end
$var wire 1 l# fila [20] $end
$var wire 1 m# fila [19] $end
$var wire 1 n# fila [18] $end
$var wire 1 o# fila [17] $end
$var wire 1 p# fila [16] $end
$var wire 1 q# fila [15] $end
$var wire 1 r# fila [14] $end
$var wire 1 s# fila [13] $end
$var wire 1 t# fila [12] $end
$var wire 1 u# fila [11] $end
$var wire 1 v# fila [10] $end
$var wire 1 w# fila [9] $end
$var wire 1 x# fila [8] $end
$var wire 1 y# fila [7] $end
$var wire 1 z# fila [6] $end
$var wire 1 {# fila [5] $end
$var wire 1 |# fila [4] $end
$var wire 1 }# fila [3] $end
$var wire 1 ~# fila [2] $end
$var wire 1 !$ fila [1] $end
$var wire 1 "$ fila [0] $end
$upscope $end
$upscope $end
$enddefinitions $end
#0
$dumpvars
0!
1"
0B
0A
0@
0?
0>
0=
0<
0;
0:
09
08
07
06
05
04
03
02
01
00
0/
0.
0-
0,
0+
0*
0)
0(
0'
0&
0%
0$
0#
0b
0a
0`
0_
0^
0]
0\
0[
0Z
0Y
0X
0W
0V
0U
0T
0S
0R
0Q
0P
0O
0N
0M
0L
0K
0J
0I
0H
0G
0F
0E
0D
0C
1j
1i
1h
1g
1f
1e
1d
0c
1L!
0K!
0J!
0I!
0H!
0G!
0F!
0E!
0D!
0C!
0B!
0A!
0@!
0?!
0>!
0=!
0<!
0;!
0:!
09!
08!
07!
06!
05!
04!
03!
02!
01!
00!
0/!
0.!
0-!
0,!
0+!
0*!
0)!
0(!
0'!
0&!
0%!
0$!
0#!
0"!
0!!
0~
0}
0|
0{
0z
0y
0x
0w
0v
0u
0t
0s
0r
0q
0p
0o
0n
0m
0l
0k
xM!
0N!
1O!
xP!
1Q!
1R!
1S!
1T!
1U!
0V!
1W!
0X!
0Y!
1Z!
1[!
0\!
0]!
0^!
1_!
1`!
1a!
0b!
1c!
0d!
0e!
1f!
0g!
0h!
1i!
0j!
0k!
1l!
0m!
0n!
0o!
1p!
0q!
0r!
1s!
0t!
1u!
1v!
0w!
0x!
0y!
0z!
0{!
0|!
1}!
0~!
0!"
1""
0#"
1$"
0%"
0&"
1'"
0("
0)"
0*"
1+"
0,"
1-"
0."
1/"
00"
01"
02"
13"
04"
05"
06"
17"
08"
09"
0:"
1;"
0<"
0="
1>"
0?"
1@"
0A"
0B"
1C"
0D"
0E"
1F"
0G"
0H"
0I"
1J"
0K"
0L"
0M"
1N"
0O"
1P"
0Q"
0R"
1S"
1T"
1U"
0V"
0W"
0X"
0Y"
1Z"
0["
0\"
1]"
0^"
1_"
0`"
0a"
1b"
0c"
0d"
1e"
0f"
0g"
1h"
0i"
0j"
0k"
1l"
0m"
0n"
0o"
1p"
0q"
0r"
0s"
1t"
0u"
0v"
0w"
0x"
1y"
1z"
1{"
1|"
0}"
0~"
0!#
0"#
0##
0$#
0%#
0&#
0'#
0(#
0)#
1*#
0+#
0,#
0-#
0.#
0/#
00#
01#
02#
03#
04#
05#
06#
07#
08#
09#
0:#
0;#
0<#
0=#
0>#
0?#
1@#
0`#
0_#
0^#
0]#
0\#
0[#
0Z#
0Y#
0X#
0W#
0V#
0U#
0T#
0S#
0R#
0Q#
0P#
0O#
0N#
0M#
0L#
0K#
0J#
0I#
0H#
0G#
0F#
0E#
0D#
0C#
0B#
0A#
0"$
0!$
0~#
0}#
0|#
0{#
0z#
0y#
0x#
0w#
0v#
0u#
0t#
0s#
0r#
0q#
0p#
0o#
0n#
0m#
0l#
0k#
0j#
0i#
0h#
0g#
0f#
0e#
0d#
0c#
0b#
0a#
$end
#5000
1!
1X!
1Y!
0M!
1`#
11#
0_!
1\!
0[!
1B
12#
0`!
1K!
0L!
#10000
0!
0X!
0Y!
1M!
#15000
1!
1X!
1Y!
0M!
0`#
1_#
01#
1_!
1[!
14#
02#
0B
1A
04#
13#
1I!
0K!
0I!
1J!
#20000
0!
0X!
0Y!
1M!
#25000
1!
1X!
1Y!
0M!
1`#
11#
0_!
1X"
0\!
0[!
1B
14#
03#
1Y"
1I!
0J!
#30000
0!
0X!
0Y!
1M!
#35000
1!
1X!
1Y!
0M!
1^#
0`#
0_#
16#
04#
0Z"
0Y"
01#
1_!
0X"
1[!
1@
0B
0A
1^!
06#
15#
1Z"
1Y"
1G!
0I!
0^!
0G!
1H!
#40000
0!
0X!
0Y!
1M!
#45000
1!
1X!
1Y!
0M!
1`#
11#
0_!
1\!
0[!
1B
16#
05#
1G!
0H!
#50000
0!
0X!
0Y!
1M!
#55000
1!
1X!
1Y!
0M!
0`#
1_#
01#
1_!
1[!
18#
06#
0B
1A
08#
17#
1E!
0G!
0E!
1F!
#60000
0!
0X!
0Y!
1M!
#65000
1!
1X!
1Y!
0M!
1`#
11#
1}"
0_!
1X"
0\!
0[!
1B
18#
07#
0Z"
0Y"
1^!
1E!
0F!
#70000
0!
0X!
0Y!
1M!
#75000
1!
1X!
1Y!
0M!
0^#
0`#
1]#
0_#
08#
12#
0}"
1Z"
1Y"
01#
0X"
1[!
1["
0^!
0@
0B
1?
0A
0["
1^!
02#
0Y"
1\"
0E!
1K!
0\"
0K!
#80000
0!
0X!
0Y!
1M!
#85000
1!
1X!
1Y!
0M!
1`#
1\!
0[!
1B
#90000
0!
0X!
0Y!
1M!
#95000
1!
1X!
1Y!
0M!
0`#
1_#
1[!
0B
1A
#100000
0!
0X!
0Y!
1M!
#105000
1!
1X!
1Y!
0M!
1`#
1X"
0\!
0[!
1B
1Y"
#110000
0!
0X!
0Y!
1M!
#115000
1!
1X!
1Y!
0M!
1^#
0`#
0_#
0Z"
0Y"
0X"
1[!
1@
0B
0A
1["
0^!
1Z"
1Y"
1\"
0["
1^!
0\"
#120000
0!
0X!
0Y!
1M!
#125000
1!
1X!
1Y!
0M!
1`#
1\!
0[!
1B
#130000
0!
0X!
0Y!
1M!
#135000
1!
1X!
1Y!
0M!
0`#
1_#
1[!
0B
1A
#140000
0!
0X!
0Y!
1M!
#145000
1!
1X!
1Y!
0M!
1`#
1}"
1X"
0\!
0[!
1B
0Z"
0Y"
1["
0^!
1\"
#150000
0!
0X!
0Y!
1M!
#155000
1!
1X!
1Y!
0M!
1\#
0^#
0`#
0]#
0_#
0]"
0\"
0}"
1Z"
1Y"
0X"
1[!
0["
1^!
1>
0@
0B
0?
0A
1]!
0^!
0Y"
1]"
1\"
0]!
#160000
0!
0X!
0Y!
1M!
#165000
1!
1X!
1Y!
0M!
1`#
1\!
0[!
1B
#170000
0!
0X!
0Y!
1M!
#175000
1!
1X!
1Y!
0M!
0`#
1_#
1[!
0B
1A
#180000
0!
0X!
0Y!
1M!
#185000
1!
1X!
1Y!
0M!
1`#
1X"
0\!
0[!
1B
1Y"
#190000
0!
0X!
0Y!
1M!
#195000
1!
1X!
1Y!
0M!
1^#
0`#
0_#
0Z"
0Y"
0X"
1[!
1@
0B
0A
1^!
1Z"
1Y"
0^!
#200000
0!
0X!
0Y!
1M!
#205000
1!
1X!
1Y!
0M!
1`#
1\!
0[!
1B
#210000
0!
0X!
0Y!
1M!
#215000
1!
1X!
1Y!
0M!
0`#
1_#
1[!
0B
1A
#220000
0!
0X!
0Y!
1M!
#225000
1!
1X!
1Y!
0M!
1`#
1}"
1X"
0\!
0[!
1B
0Z"
0Y"
1^!
#230000
0!
0X!
0Y!
1M!
#235000
1!
1X!
1Y!
0M!
0^#
0`#
1]#
0_#
0}"
1Z"
1Y"
0X"
1[!
1["
0^!
0@
0B
1?
0A
0["
1^!
0Y"
0]"
0\"
1]"
1\"
1]!
0]!
#240000
0!
0X!
0Y!
1M!
#245000
1!
1X!
1Y!
0M!
1`#
1\!
0[!
1B
#250000
0!
0X!
0Y!
1M!
#255000
1!
1X!
1Y!
0M!
0`#
1_#
1[!
0B
1A
#260000
0!
0X!
0Y!
1M!
#265000
1!
1X!
1Y!
0M!
1`#
1X"
0\!
0[!
1B
1Y"
#270000
0!
0X!
0Y!
1M!
#275000
1!
1X!
1Y!
0M!
1^#
0`#
0_#
0Z"
0Y"
0X"
1[!
1@
0B
0A
1["
0^!
1Z"
1Y"
0]"
0\"
0["
1^!
1]!
1]"
1\"
0]!
#280000
0!
0X!
0Y!
1M!
#285000
1!
1X!
1Y!
0M!
1`#
1\!
0[!
1B
#290000
0!
0X!
0Y!
1M!
#295000
1!
1X!
1Y!
0M!
0`#
1_#
1[!
0B
1A
#300000
0!
0X!
0Y!
1M!
#305000
1!
1X!
1Y!
0M!
1`#
1}"
1X"
0\!
0[!
1B
0Z"
0Y"
1["
0^!
0]"
0\"
1]!
#310000
0!
0X!
0Y!
1M!
#315000
1!
1X!
1Y!
0M!
0\#
0^#
0`#
0]#
1[#
0_#
1]"
1\"
0}"
1Z"
1Y"
0X"
1[!
0["
1^!
1^"
0]!
0>
0@
0B
0?
1=
0A
0^"
1]!
0^!
0Y"
0\"
1z!
0z!
#320000
0!
0X!
0Y!
1M!
#325000
1!
1X!
1Y!
0M!
1`#
1\!
0[!
1B
#330000
0!
0X!
0Y!
1M!
#335000
1!
1X!
1Y!
0M!
0`#
1_#
1[!
0B
1A
#340000
0!
0X!
0Y!
1M!
#345000
1!
1X!
1Y!
0M!
1`#
1X"
0\!
0[!
1B
1Y"
#350000
0!
0X!
0Y!
1M!
#355000
1!
1X!
1Y!
0M!
1^#
0`#
0_#
0Z"
0Y"
0X"
1[!
1@
0B
0A
1^!
1Z"
1Y"
0^!
#360000
0!
0X!
0Y!
1M!
#365000
1!
1X!
1Y!
0M!
1`#
1\!
0[!
1B
#370000
0!
0X!
0Y!
1M!
#375000
1!
1X!
1Y!
0M!
0`#
1_#
1[!
0B
1A
#380000
0!
0X!
0Y!
1M!
#385000
1!
1X!
1Y!
0M!
1`#
1}"
1X"
0\!
0[!
1B
0Z"
0Y"
1^!
#390000
0!
0X!
0Y!
1M!
#395000
1!
1X!
1Y!
0M!
0^#
0`#
1]#
0_#
0}"
1Z"
1Y"
0X"
1[!
1["
0^!
0@
0B
1?
0A
0["
1^!
0Y"
1\"
0\"
#400000
0!
0X!
0Y!
1M!
#405000
1!
1X!
1Y!
0M!
1`#
1\!
0[!
1B
#410000
0!
0X!
0Y!
1M!
#415000
1!
1X!
1Y!
0M!
0`#
1_#
1[!
0B
1A
#420000
0!
0X!
0Y!
1M!
#425000
1!
1X!
1Y!
0M!
1`#
1X"
0\!
0[!
1B
1Y"
#430000
0!
0X!
0Y!
1M!
#435000
1!
1X!
1Y!
0M!
1^#
0`#
0_#
0Z"
0Y"
0X"
1[!
1@
0B
0A
1["
0^!
1Z"
1Y"
1\"
0["
1^!
0\"
#440000
0!
0X!
0Y!
1M!
#445000
1!
1X!
1Y!
0M!
1`#
1\!
0[!
1B
#450000
0!
0X!
0Y!
1M!
#455000
1!
1X!
1Y!
0M!
0`#
1_#
1[!
0B
1A
#460000
0!
0X!
0Y!
1M!
#465000
1!
1X!
1Y!
0M!
1`#
1}"
1X"
0\!
0[!
1B
0Z"
0Y"
1["
0^!
1\"
#470000
0!
0X!
0Y!
1M!
#475000
1!
1X!
1Y!
0M!
1\#
0^#
0`#
0]#
0_#
0]"
0\"
0}"
1Z"
1Y"
0X"
1[!
0["
1^!
1>
0@
0B
0?
0A
1^"
0]!
0^!
0Y"
1]"
1\"
1z!
0^"
1]!
0z!
#480000
0!
0X!
0Y!
1M!
#485000
1!
1X!
1Y!
0M!
1`#
1\!
0[!
1B
#490000
0!
0X!
0Y!
1M!
#495000
1!
1X!
1Y!
0M!
0`#
1_#
1[!
0B
1A
#500000
0!
0X!
0Y!
1M!
#505000
1!
1X!
1Y!
0M!
1`#
1X"
0\!
0[!
1B
1Y"
#510000
0!
0X!
0Y!
1M!
#515000
1!
1X!
1Y!
0M!
1^#
0`#
0_#
0Z"
0Y"
0X"
1[!
1@
0B
0A
1^!
1Z"
1Y"
0^!
#520000
0!
0X!
0Y!
1M!
#525000
1!
1X!
1Y!
0M!
1`#
1\!
0[!
1B
#530000
0!
0X!
0Y!
1M!
#535000
1!
1X!
1Y!
0M!
0`#
1_#
1[!
0B
1A
#540000
0!
0X!
0Y!
1M!
#545000
1!
1X!
1Y!
0M!
1`#
1}"
1X"
0\!
0[!
1B
0Z"
0Y"
1^!
#550000
0!
0X!
0Y!
1M!
#555000
1!
1X!
1Y!
0M!
0^#
0`#
1]#
0_#
0}"
1Z"
1Y"
0X"
1[!
1{!
1["
0^!
0@
0B
1?
0A
0["
1^!
0Y"
0]"
0\"
1]"
1\"
1^"
0]!
0^"
1]!
1z!
0z!
#560000
0!
0X!
0Y!
1M!
#565000
1!
1X!
1Y!
0M!
1`#
1\!
0[!
1B
#570000
0!
0X!
0Y!
1M!
#575000
1!
1X!
1Y!
0M!
0`#
1_#
1[!
0B
1A
#580000
0!
0X!
0Y!
1M!
#585000
1!
1X!
1Y!
0M!
1`#
1X"
0\!
0[!
1B
1Y"
#590000
0!
0X!
0Y!
1M!
#595000
1!
1X!
1Y!
0M!
1^#
0`#
0_#
0Z"
0Y"
0X"
1[!
1@
0B
0A
1["
0^!
1Z"
1Y"
0]"
0\"
0["
1^!
1^"
0]!
1]"
1\"
1z!
0^"
1]!
0z!
#600000
0!
0X!
0Y!
1M!
#605000
1!
1X!
1Y!
0M!
1`#
1\!
0[!
1B
#610000
0!
0X!
0Y!
1M!
#615000
1!
1X!
1Y!
0M!
0`#
1_#
1[!
0B
1A
#620000
0!
0X!
0Y!
1M!
#625000
1!
1X!
1Y!
0M!
1`#
1}"
1X"
0\!
0[!
1B
1~"
1|!
0Z"
0Y"
1!#
1["
0^!
0]"
0\"
1^"
0]!
1z!
#630000
0!
0X!
0Y!
1M!
#635000
1!
1X!
1Y!
0M!
1"$
0\#
0^#
0`#
1Z#
0]#
0[#
0_#
0@#
1?#
0!#
1"#
1]"
1\"
0{!
1_!
0}"
1Z"
1Y"
0X"
1[!
0_"
0z!
0["
1^!
0^"
1]!
1b
0>
0@
0B
1<
0?
0=
0A
0]!
0~"
0|!
1`!
0^!
0Y"
1`"
0\"
1_"
1z!
1c
0d
1!#
1w!
0`"
1L!
1W"
0Z#
0z!
0w!
0<
0W"
#640000
0!
0X!
0Y!
1M!
#645000
1!
1X!
1Y!
0M!
1`#
11#
0_!
1\!
0[!
1B
12#
0`!
1K!
0L!
#650000
0!
0X!
0Y!
1M!
#655000
1!
1X!
1Y!
0M!
0`#
1_#
01#
1_!
1[!
14#
02#
0B
1A
04#
13#
1I!
0K!
0I!
1J!
#660000
0!
0X!
0Y!
1M!
#665000
1!
1X!
1Y!
0M!
1`#
11#
0_!
1X"
0\!
0[!
1B
14#
03#
1Y"
1I!
0J!
#670000
0!
0X!
0Y!
1M!
#675000
1!
1X!
1Y!
0M!
1^#
0`#
0_#
16#
04#
0Z"
0Y"
01#
1_!
0X"
1[!
1@
0B
0A
1^!
06#
15#
1Z"
1Y"
1G!
0I!
0^!
0G!
1H!
#680000
0!
0X!
0Y!
1M!
#685000
1!
1X!
1Y!
0M!
1`#
11#
0_!
1\!
0[!
1B
16#
05#
1G!
0H!
#690000
0!
0X!
0Y!
1M!
#695000
1!
1X!
1Y!
0M!
0`#
1_#
01#
1_!
1[!
18#
06#
0B
1A
08#
17#
1E!
0G!
0E!
1F!
#700000
0!
0X!
0Y!
1M!
